%!PS-Adobe-3.0 EPSF-3.0
%%Creator: cairo 1.14.8 (http://cairographics.org)
%%CreationDate: Thu Aug 15 19:08:02 2019
%%Pages: 1
%%DocumentData: Clean7Bit
%%LanguageLevel: 2
%%BoundingBox: 0 0 158 150
%%EndComments
%%BeginProlog
save
50 dict begin
/q { gsave } bind def
/Q { grestore } bind def
/cm { 6 array astore concat } bind def
/w { setlinewidth } bind def
/J { setlinecap } bind def
/j { setlinejoin } bind def
/M { setmiterlimit } bind def
/d { setdash } bind def
/m { moveto } bind def
/l { lineto } bind def
/c { curveto } bind def
/h { closepath } bind def
/re { exch dup neg 3 1 roll 5 3 roll moveto 0 rlineto
      0 exch rlineto 0 rlineto closepath } bind def
/S { stroke } bind def
/f { fill } bind def
/f* { eofill } bind def
/n { newpath } bind def
/W { clip } bind def
/W* { eoclip } bind def
/BT { } bind def
/ET { } bind def
/pdfmark where { pop globaldict /?pdfmark /exec load put }
    { globaldict begin /?pdfmark /pop load def /pdfmark
    /cleartomark load def end } ifelse
/BDC { mark 3 1 roll /BDC pdfmark } bind def
/EMC { mark /EMC pdfmark } bind def
/cairo_store_point { /cairo_point_y exch def /cairo_point_x exch def } def
/Tj { show currentpoint cairo_store_point } bind def
/TJ {
  {
    dup
    type /stringtype eq
    { show } { -0.001 mul 0 cairo_font_matrix dtransform rmoveto } ifelse
  } forall
  currentpoint cairo_store_point
} bind def
/cairo_selectfont { cairo_font_matrix aload pop pop pop 0 0 6 array astore
    cairo_font exch selectfont cairo_point_x cairo_point_y moveto } bind def
/Tf { pop /cairo_font exch def /cairo_font_matrix where
      { pop cairo_selectfont } if } bind def
/Td { matrix translate cairo_font_matrix matrix concatmatrix dup
      /cairo_font_matrix exch def dup 4 get exch 5 get cairo_store_point
      /cairo_font where { pop cairo_selectfont } if } bind def
/Tm { 2 copy 8 2 roll 6 array astore /cairo_font_matrix exch def
      cairo_store_point /cairo_font where { pop cairo_selectfont } if } bind def
/g { setgray } bind def
/rg { setrgbcolor } bind def
/d1 { setcachedevice } bind def
%%EndProlog
%%BeginSetup
%%EndSetup
%%Page: 1 1
%%BeginPageSetup
%%PageBoundingBox: 0 0 158 150
%%EndPageSetup
q 0 0 158 150 rectclip q
0 g
0 150 157.5 -150 re f
1 0 0 rg
127.5 96 m 127.5 122.922 105.672 144.75 78.75 144.75 c 51.824 144.75 30
 122.922 30 96 c f
0 1 0 rg
30 96 m 6.684 82.535 -1.305 52.723 12.156 29.406 c 25.621 6.09 55.434 -1.898
 78.75 11.562 c f
0 0 1 rg
78.75 11.562 m 102.066 -1.898 131.879 6.09 145.34 29.406 c 158.801 52.723
 150.812 82.535 127.5 96 c f
1 1 0 rg
78.75 96 m 63.664 104.707 45.082 104.707 30 96 c 30 78.582 39.289 62.488
 54.375 53.781 c f
0 1 1 rg
54.375 53.781 m 54.375 36.363 63.664 20.27 78.75 11.562 c 93.832 20.27 
103.125 36.363 103.125 53.781 c f
1 0 1 rg
103.125 53.781 m 118.207 62.488 127.5 78.582 127.5 96 c 112.414 104.707
 93.832 104.707 78.75 96 c f
1 g
78.75 96 m 63.664 87.289 54.375 71.195 54.375 53.781 c 69.457 45.07 88.039
 45.07 103.125 53.781 c 103.125 71.195 93.832 87.289 78.75 96 c f
Q Q
showpage
%%Trailer
end restore
%%EOF
